{
  "mappings" : {
    "driver": {
      "properties": {
        "name": {
          "type": "text"
        },
        "birthday": {
          "type": "text"
        },
        "country": {
          "type": "text"
        },
        "wiki": {
          "type": "text"
        }
      }
    }
  }
}













